{
    "prepare_queue": {
        "installed": [],
        "uninstalled": []
    },
    "config_munge": {
        "files": {}
    },
    "installed_plugins": {
        "cordova-plugin-whitelist": {
            "PACKAGE_NAME": "com.tapper.bonim"
        },
        "cordova-plugin-file": {
            "PACKAGE_NAME": "com.tapper.bonim"
        },
        "cordova-plugin-file-transfer": {
            "PACKAGE_NAME": "com.tapper.bonim"
        },
        "cordova-plugin-camera": {
            "PACKAGE_NAME": "com.tapper.bonim"
        },
        "cordova-plugin-contacts": {
            "PACKAGE_NAME": "com.tapper.bonim"
        }
    },
    "dependent_plugins": {
        "cordova-plugin-compat": {
            "PACKAGE_NAME": "com.tapper.bonim"
        }
    }
}